{
    "KPlugin": {
        "Authors": [
            {
                "Email": "ltinkl@redhat.com",
                "Name": "Lukáš Tinkl",
                "Name[ar]": "Lukáš Tinkl",
                "Name[az]": "Lukáš Tinkl",
                "Name[bg]": "Lukáš Tinkl",
                "Name[ca@valencia]": "Lukáš Tinkl",
                "Name[ca]": "Lukáš Tinkl",
                "Name[cs]": "Lukáš Tinkl",
                "Name[de]": "Lukáš Tinkl",
                "Name[en_GB]": "Lukáš Tinkl",
                "Name[eo]": "Lukáš Tinkl",
                "Name[es]": "Lukáš Tinkl",
                "Name[eu]": "Lukáš Tinkl",
                "Name[fi]": "Lukáš Tinkl",
                "Name[fr]": "Lukáš Tinkl",
                "Name[gl]": "Lukáš Tinkl",
                "Name[hu]": "Lukáš Tinkl",
                "Name[ia]": "Lukáš Tinkl",
                "Name[is]": "Lukáš Tinkl",
                "Name[it]": "Lukáš Tinkl",
                "Name[ka]": "Lukáš Tinkl",
                "Name[ko]": "Lukáš Tinkl",
                "Name[lt]": "Lukáš Tinkl",
                "Name[nl]": "Lukáš Tinkl",
                "Name[nn]": "Lukáš Tinkl",
                "Name[pl]": "Lukáš Tinkl",
                "Name[pt]": "Lukáš Tinkl",
                "Name[pt_BR]": "Lukáš Tinkl",
                "Name[ro]": "Lukáš Tinkl",
                "Name[ru]": "Lukáš Tinkl",
                "Name[sk]": "Lukáš Tinkl",
                "Name[sl]": "Lukáš Tinkl",
                "Name[sv]": "Lukáš Tinkl",
                "Name[ta]": "லூக்காஸ் டிங்க்குள்",
                "Name[tr]": "Lukáš Tinkl",
                "Name[uk]": "Lukáš Tinkl",
                "Name[x-test]": "xxLukáš Tinklxx",
                "Name[zh_CN]": "Lukáš Tinkl",
                "Name[zh_TW]": "Lukáš Tinkl"
            }
        ],
        "Category": "VPNService",
        "Description": "Compatible with various Cisco, Juniper, Netscreen and Sonicwall IPsec-based VPN gateways",
        "Description[ar]": "متوافق مع العديد من بوابات الشبكات الخاصة  Cisco و Juniper و Netscreen و Sonicwall المستندة إلى IPsec",
        "Description[az]": "Müxtəlif Cisco, Juniper, Netscreen və Sonicwall IPsec əsaslı VPN şəbəkə keçidləri ilə ilə uyğun",
        "Description[bg]": "Съвместим с различни Cisco, Juniper, Netscreen и Sonicwall IPsec-базирани VPN шлюзове",
        "Description[ca@valencia]": "Compatible amb diverses passarel·les VPN basades en IPsec de Cisco, Juniper, Netscreen i Sonicwall",
        "Description[ca]": "Compatible amb diverses passarel·les VPN basades en IPsec de Cisco, Juniper, Netscreen i Sonicwall",
        "Description[cs]": "Kompatibilní s různými bránami VPN založenými na IPsec Cisco, Juniper, Netscreen a Sonicwall",
        "Description[de]": "Mit verschiedenen auf IPsec basierenden VPN-Gateways von Cisco, Juniper, Netscreen und Sonicwall kompatibel",
        "Description[en_GB]": "Compatible with various Cisco, Juniper, Netscreen and Sonicwall IPsec-based VPN gateways",
        "Description[eo]": "Kongrua kun diversaj VPN-enirejoj bazitaj sur Cisco, Juniper, Netscreen kaj Sonicwall IPsec",
        "Description[es]": "Compatible con diversas puertas de enlace VPN de Cisco, Juniper, Netscreen y Sonicwall basadas en IPsec",
        "Description[eu]": "Cisco, Juniper, Netscreen eta Sonicwall IPsec-oinarridun VPN atebideekin bateragarria",
        "Description[fi]": "Yhteensopiva Ciscon, Juniperin, Netscreenin ja Sonicwallin eri IPsec-pohjaisten VPN-yhdyskäytävien kanssa",
        "Description[fr]": "Compatible avec diverses passerelles VPN « Cisco », « Juniper », « Netscreen » et « Sonicwall » utilisant IPsec",
        "Description[gl]": "Compatíbel coas seguintes pasarelas de VPN baseadas en IPsec: Cisco, Juniper, Netscreen e Sonicwall.",
        "Description[hu]": "Kompatibilis különböző Cisco, Juniper, Netscreen és Sonicwall IPsec-alapú VPN átjárókkal",
        "Description[ia]": "Compatibile con varie gateways VPN basate sur Cisco, Juniper, Netscreen  e Sonicwall IPsec",
        "Description[is]": "Samhæft við ýmsar IPsec-afleiddar VPN-netgáttir frá Cisco, Juniper, Netscreen og Sonicwall",
        "Description[it]": "Compatibile con diversi gateway VPN Cisco, Juniper, Netscreen e Sonicwall basati su IPsec",
        "Description[ka]": "სხვადასხვა Cisco, Juniper, Netscreen და Sonicwall IPsec-ზე დაფუძნებული VPN კონცენტრატორები",
        "Description[ko]": "Cisco, Juniper, Netscreen, Sonicwall IPSec 기반 VPN 게이트웨이와 호환됨",
        "Description[lt]": "Suderinamas su įvairiais Cisco, Juniper, Netscreen ir Sonicwall IPsec pagrįstais VPN tinklų sietuvais",
        "Description[nl]": "Compatibel met verschillende op IPsec gebaseerde VPN-gateways van Cisco, Juniper, Netscreen en Sonicwall",
        "Description[nn]": "Kompatibel med ymse Cisco-, Juniper-, Netscreen- og Sonicwall IPsec-baserte VPN-portnarar",
        "Description[pl]": "Zgodny z różnymi bramami VPN opartymi na Cisco, Juniper, Netscreen, oraz IPsec Sonicwall",
        "Description[pt]": "Compatível com diversas 'gateways' de VPN baseadas em IPsec, como a Cisco, Juniper, Netscreen e Sonicwall",
        "Description[pt_BR]": "Compatível com diversos gateways de VPN baseadas em IPsec, como Cisco, Juniper, Netscreen e Sonicwall",
        "Description[ru]": "Совместимая с различными VPN-шлюзами на основе IPsec от Cisco, Juniper, Netscreen и Sonicwall",
        "Description[sk]": "Kompatibilné s rôznymi bránami VPN založenými na IPsec od Cisco, Juniper, Netscreen a Sonicwall",
        "Description[sl]": "Združljiv z različnimi prehodi VPN, temelječimi na IPsec: Cisco, Juniper, Netscreen in Sonicwall",
        "Description[sv]": "Kompatibel med olika Cisco, Juniper, Netscreen och Sonicwall IPsec-baserade VPN-förmedlingsnoder",
        "Description[tr]": "Çeşitli Cisco, Juniper, Netscreen ve Sonicwall IPsec tabanlı VPN ağ geçitleri ile uyumlu",
        "Description[uk]": "Сумісний із різноманітними шлюзами VPN Cisco, Juniper, Netscreen та Sonicwall на основі IPsec",
        "Description[x-test]": "xxCompatible with various Cisco, Juniper, Netscreen and Sonicwall IPsec-based VPN gatewaysxx",
        "Description[zh_CN]": "兼容多种 Cisco、Juniper、Netscreen 和 Sonicwall 基于 IPsec 的 VPN 网关",
        "Description[zh_TW]": "與多種 Cisco, Juniper, Netscreen 與 Sonicwall IPsec 為基底的 VPN 閘道相容",
        "EnabledByDefault": false,
        "Icon": "",
        "Id": "plasmanetworkmanagement_vpncui",
        "License": "GPL",
        "Name": "Cisco Compatible VPN (vpnc)",
        "Name[ar]": "شبكات خاصة متوافقة مع سيسكو بواسطة (vpnc)",
        "Name[az]": "Cisco ilə uyğun VPN (vpnc)",
        "Name[bg]": "Cisco Compatible VPN (vpnc)",
        "Name[ca@valencia]": "VPN compatible amb Cisco (vpnc)",
        "Name[ca]": "VPN compatible amb Cisco (vpnc)",
        "Name[cs]": "VPN kompatibilní s Cisco (vpnc)",
        "Name[da]": "Cisco-kompatibelt VPN (vpnc)",
        "Name[de]": "VPN kompatibel mit Cisco (vpnc)",
        "Name[el]": "Συμβατό με Cisco VPN (vpnc)",
        "Name[en_GB]": "Cisco Compatible VPN (vpnc)",
        "Name[eo]": "Cisco Kongrua VPN (vpnc)",
        "Name[es]": "VPN compatible con Cisco (vpnc)",
        "Name[et]": "Ciscoga ühilduv VPN (vpnc)",
        "Name[eu]": "Ciscorekin bateragarria den VPN (vpnc)",
        "Name[fi]": "Cisco-yhteensopiva VPN (vpnc)",
        "Name[fr]": "VPN compatible Cisco (vpnc)",
        "Name[gl]": "VPN compatíbel con Cisco (vpnc)",
        "Name[he]": "Cisco Compatible VPN (vpnc)",
        "Name[hsb]": "Cisco-kompatibelny VPN (vpnc)",
        "Name[hu]": "Cisco kompatibilis VPN (vpnc)",
        "Name[ia]": "Cisco Compatible VPN (vpnc)",
        "Name[id]": "Cisco Compatible VPN (vpnc)",
        "Name[is]": "Cisco samhæft VPN (vpnc)",
        "Name[it]": "VPN compatibile Cisco (vpnc)",
        "Name[ja]": "Cisco 互換 VPN (vpnc)",
        "Name[ka]": "Cisco-სთან თავსებადი VPN (vpnc)",
        "Name[ko]": "Cisco 호환 VPN(vpnc)",
        "Name[lt]": "VPN suderinamas su Cisco (vpnc)",
        "Name[nl]": "Cisco Compatible VPN (vpnc)",
        "Name[nn]": "Cisco-kompatibel VPN (vpnc)",
        "Name[pa]": "Cisco ਅਨੁਕੂਲ VPN (vpnc)",
        "Name[pl]": "Zgodny VPN Cisco (vpnc)",
        "Name[pt]": "VPN Compatível com a Cisco (vpnc)",
        "Name[pt_BR]": "VPN Compatível com a Cisco (vpnc)",
        "Name[ru]": "Совместимая с Cisco VPN (vpnc)",
        "Name[sk]": "VPN kompatibilná s Cisco (vpnc)",
        "Name[sl]": "S Ciscom združljiv VPN (vpnc)",
        "Name[sr@ijekavian]": "ВПН сагласан са Сисковим (ВПНЦ)",
        "Name[sr@ijekavianlatin]": "VPN saglasan sa Ciscovim (VPNC)",
        "Name[sr@latin]": "VPN saglasan sa Ciscovim (VPNC)",
        "Name[sr]": "ВПН сагласан са Сисковим (ВПНЦ)",
        "Name[sv]": "Cisco-kompatibel VPN (vpnc)",
        "Name[tr]": "Cisco Uyumlu VPN (vpnc)",
        "Name[uk]": "Сумісний із Cisco VPN (vpnc)",
        "Name[x-test]": "xxCisco Compatible VPN (vpnc)xx",
        "Name[zh_CN]": "Cisco 兼容 VPN (vpnc)",
        "Name[zh_TW]": "Cisco 相容 VPN (vpnc)",
        "Version": "0.1",
        "Website": ""
    },
    "X-NetworkManager-Services": "org.freedesktop.NetworkManager.vpnc"
}
