{
    "KPlugin": {
        "Authors": [
            {
                "Email": "plasma-devel@kde.org  ",
                "Name": "KDE plasma",
                "Name[az]": "KDE plasma",
                "Name[bg]": "KDE plasma",
                "Name[ca@valencia]": "Plasma de KDE",
                "Name[ca]": "Plasma del KDE",
                "Name[cs]": "KDE plasma",
                "Name[de]": "KDE Plasma",
                "Name[en_GB]": "KDE Plasma",
                "Name[eo]": "KDE-plasma",
                "Name[es]": "KDE Plasma",
                "Name[eu]": "KDE plasma",
                "Name[fi]": "KDE Plasma",
                "Name[fr]": "KDE Plasma",
                "Name[gl]": "KDE Plasma",
                "Name[ia]": "KDE Plasma",
                "Name[is]": "KDE-plasma",
                "Name[it]": "KDE Plasma",
                "Name[ka]": "KDE plasma",
                "Name[ko]": "KDE Plasma",
                "Name[lt]": "KDE Plasma",
                "Name[nl]": "KDE plasma",
                "Name[nn]": "KDE Plasma",
                "Name[pl]": "Plazma KDE",
                "Name[pt]": "Plasma do KDE",
                "Name[pt_BR]": "KDE Plasma",
                "Name[ru]": "KDE plasma",
                "Name[sk]": "KDE plasma",
                "Name[sl]": "KDE plasma",
                "Name[sv]": "KDE Plasma",
                "Name[ta]": "கே.டீ.யீ. பிளாஸ்மா",
                "Name[tr]": "KDE Plasma",
                "Name[uk]": "Плазма KDE",
                "Name[x-test]": "xxKDE plasmaxx",
                "Name[zh_CN]": "KDE plasma",
                "Name[zh_TW]": "KDE plasma"
            }
        ],
        "Category": "VPNService",
        "Description": "Compatible with Array Networks SSL VPN",
        "Description[az]": "Array Networks SSL ilə uyğun Cisco AnyConnect VPN",
        "Description[bg]": "Съвместим с  Array Networks SSL VPN",
        "Description[ca@valencia]": "VPN sobre SSL compatible amb xarxes de matriu",
        "Description[ca]": "VPN sobre SSL compatible amb Array Networks",
        "Description[cs]": "Kompatibilní s Array Networks SSL VPN",
        "Description[de]": "Mit Array-Networks-SSL-VPN kompatibel",
        "Description[en_GB]": "Compatible with Array Networks SSL VPN",
        "Description[eo]": "Kongrua kun Array Networks SSL VPN",
        "Description[es]": "Compatible con VPN SSL de Array Networks",
        "Description[eu]": "Array Networks SSL VPN-rekin bateragarria",
        "Description[fi]": "Yhteensopiva Array Networksin SSL-VPN:n kanssa",
        "Description[fr]": "Compatible avec les réseaux en tableau « VPN SSL  »",
        "Description[gl]": "Compatíbel con servidores VPN por SSL de Array Networks.",
        "Description[ia]": "Compatibile con Array Networks SSL VPN",
        "Description[is]": "Samhæft við Array Networks SSL VPN",
        "Description[it]": "Compatibile con Array Networks SSL VPN",
        "Description[ka]": "Array Networks SSL VPN-თან თავსებადი",
        "Description[ko]": "Array Networks SSL VPN과 호환됨",
        "Description[lt]": "Suderinamas su Array Networks SSL VPN",
        "Description[nl]": "Compatibel met Array Networks SSL VPN",
        "Description[nn]": "Kompatibel med Array Networks SSL VPN",
        "Description[pl]": "VPN SSL zgodny z macierzą sieci",
        "Description[pt]": "Compatível com a VPN por SSL da Array Networks",
        "Description[pt_BR]": "Compatível com a VPN Array Networks por SSL",
        "Description[ru]": "Совместимая с Array Networks VPN с SSL",
        "Description[sk]": "Kompatibilné s Cisco AnyConnect SSL VPN",
        "Description[sl]": "Združljiv s poljem omrežij SSL VPN",
        "Description[sv]": "Kompatibel med Array Networks SSL VPN",
        "Description[tr]": "Array Networks SSL VPN ile uyumlu",
        "Description[uk]": "Сумісний із VPN Array Networks",
        "Description[x-test]": "xxCompatible with Array Networks SSL VPNxx",
        "Description[zh_CN]": "兼容 Array Networks SSL VPN",
        "Description[zh_TW]": "與 Array Networks SSL VPN 相容",
        "EnabledByDefault": false,
        "Icon": "",
        "Id": "plasmanetworkmanagement_openconnect_arrayui",
        "License": "GPL",
        "Name": "Array Networks Compatible VPN (openconnect)",
        "Name[az]": "Array Networks ilə uyğun VPN (openconnect)",
        "Name[bg]": "Array Networks съвместим VPN (openconnect)",
        "Name[ca@valencia]": "VPN compatible amb xarxes de matriu (openconnect)",
        "Name[ca]": "VPN compatible amb Array Networks (openconnect)",
        "Name[cs]": "VPN kompatibilní s Array Networks (openconnect)",
        "Name[de]": "VPN kompatibel mit Array Networks (openconnect)",
        "Name[en_GB]": "Array Networks Compatible VPN (openconnect)",
        "Name[eo]": "Kongruaj VPN de Arraj Retoj (malferma konekto)",
        "Name[es]": "VPN compatible con Array Networks (openconnect)",
        "Name[eu]": "Array Networks-ekin bateragarria den VPN (openconnect)",
        "Name[fi]": "Array Networks -yhteensopiva VPN (openconnect)",
        "Name[fr]": "VPN compatible avec des réseaux en tableau (openconnect)",
        "Name[gl]": "VPN compatíbel con Array Networks (openconnect)",
        "Name[ia]": "Array Networks Compatible VPN (openconnect)",
        "Name[is]": "Array Networks samhæft VPN (openconnect)",
        "Name[it]": "VPN compatibile Array Networks (openconnect)",
        "Name[ka]": "Array Networks -თან თავსებადი VPN (openconnect)",
        "Name[ko]": "Array Networks 호환 VPN(openconnect)",
        "Name[lt]": "Array Networks suderinamas VPN (openconnect)",
        "Name[nl]": "Array Networks compatibele VPN (openconnect)",
        "Name[nn]": "Array Networks-kompatibel VPN (openconnect)",
        "Name[pl]": "VPN zgodny z macierzą sieci (openconnect)",
        "Name[pt]": "VPN Compatível com a Array Networks (openconnect)",
        "Name[pt_BR]": "VPN compatível com o Array Networks (openconnect)",
        "Name[ru]": "Совместимая с Array Networks VPN (openconnect)",
        "Name[sk]": "VPN kompatibilná s Cisco AnyConnect (openconnect)",
        "Name[sl]": "Polje mrežno združljivih VPN (openconnect)",
        "Name[sv]": "Array Networks-kompatibel VPN (openconnect)",
        "Name[tr]": "Array Networks Uyumlu VPN (openconnect)",
        "Name[uk]": "VPN, сумісний з Array Networks (openconnect)",
        "Name[x-test]": "xxArray Networks Compatible VPN (openconnect)xx",
        "Name[zh_CN]": "Array Networks 兼容 VPN (openconnect)",
        "Name[zh_TW]": "與 Array Networks 相容的 VPN (openconnect)",
        "Version": "0.1",
        "Website": ""
    },
    "X-NetworkManager-Services": "org.freedesktop.NetworkManager.openconnect",
    "X-NetworkManager-Services-Subtype": "anyconnect"
}
